*Heading
 /Users/ns14232/git/papers/rd/meshes/single_cell_5um.inp
*NODE
1, -5, -5, 0
2, -5, 5, 0
3, 5, 5, 0
4, -5, -5, 10
5, -5, 5, 10
6, 5, 5, 10
7, 5, -5, 10
8, 5, -5, 0
9, 0, 0, 5
10, 2.5, 0, 5
11, 0, 2.5, 5
12, 0, 0, 7.5
13, -2.5, 0, 5
14, 0, -2.5, 5
15, 0, 0, 2.5
16, -6.1586291622007e-12, 5, 0
17, 5, 5, 4.9999999999924
18, 6.1586291622007e-12, 5, 10
19, -5, 5, 5
20, 5, 6.1586291622007e-12, 0
21, 5, -5, 4.9999999999924
22, 5, -6.1586291622007e-12, 10
23, -5, 6.1586291622007e-12, 10
24, -6.1586291622007e-12, -5, 10
25, -5, -5, 5
26, -5, -6.1586291622007e-12, 0
27, -6.1586291622007e-12, -5, 0
28, 1.7677669529704, 0, 3.2322330470376
29, -1.767766952963, 0, 3.2322330470302
30, -1.7677669529702, 0, 6.7677669529625
31, 1.7677669529626, 0, 6.7677669529702
32, 1.7677669529697, 1.767766952963, 5
33, -1.767766952963, 1.7677669529697, 5
34, -1.7677669529697, -1.767766952963, 5
35, 1.767766952963, -1.7677669529697, 5
36, 0, 1.767766952963, 3.2322330470302
37, 0, 1.7677669529702, 6.7677669529625
38, 0, -1.7677669529626, 6.7677669529702
39, 0, -1.7677669529704, 3.2322330470376
40, 0, 0, -0
41, -2.5000000000031, 2.4999999999969, -0
42, 2.4999999999969, 2.5000000000031, 0
43, -2.5000000000027, -2.5000000000027, 0
44, 2.4999999999985, -2.4999999999985, 0
45, 5.6843418860808e-16, 5, 5
46, 2.4999999999985, 5, 2.4999999999981
47, -2.5000000000031, 5, 2.5
48, 2.5000000000015, 5, 7.4999999999981
49, -2.4999999999985, 5, 7.5
50, 5, 7.6999517872878e-13, 4.9999999999962
51, 5, -2.4999999999969, 2.4999999999962
52, 5, 2.5000000000017, 2.4999999999971
53, 5, -2.5000000000013, 7.4999999999971
54, 5, 2.5000000000001, 7.4999999999969
55, 5.6843418860738e-16, -5, 5
56, 2.4999999999985, -5, 2.4999999999981
57, -2.5000000000031, -5, 2.5
58, -2.5000000000031, -5, 7.5
59, 2.4999999999985, -5, 7.4999999999981
60, 0, 0, 10
61, -2.5000000000031, -2.4999999999969, 10
62, -2.4999999999975, 2.5000000000025, 10
63, 2.5000000000025, 2.4999999999975, 10
64, 2.4999999999969, -2.5000000000031, 10
65, -5, 0, 5
66, -5, -2.5000000000031, 2.5
67, -5, 2.5000000000031, 7.5
68, -5, 2.4999999999985, 2.5
69, -5, -2.4999999999985, 7.5
70, -5.4892861098167e-16, 4.4408920985006e-16, 5
******* E L E M E N T S *************
*ELEMENT, type=T3D2, ELSET=Line1
16, 2, 16
17, 16, 3
*ELEMENT, type=T3D2, ELSET=Line2
18, 3, 17
19, 17, 6
*ELEMENT, type=T3D2, ELSET=Line3
20, 6, 18
21, 18, 5
*ELEMENT, type=T3D2, ELSET=Line4
22, 5, 19
23, 19, 2
*ELEMENT, type=T3D2, ELSET=Line5
24, 3, 20
25, 20, 8
*ELEMENT, type=T3D2, ELSET=Line6
26, 8, 21
27, 21, 7
*ELEMENT, type=T3D2, ELSET=Line7
28, 7, 22
29, 22, 6
*ELEMENT, type=T3D2, ELSET=Line8
30, 5, 23
31, 23, 4
*ELEMENT, type=T3D2, ELSET=Line9
32, 4, 24
33, 24, 7
*ELEMENT, type=T3D2, ELSET=Line10
34, 4, 25
35, 25, 1
*ELEMENT, type=T3D2, ELSET=Line11
36, 1, 26
37, 26, 2
*ELEMENT, type=T3D2, ELSET=Line12
38, 1, 27
39, 27, 8
*ELEMENT, type=T3D2, ELSET=Line38
40, 10, 28
41, 28, 15
*ELEMENT, type=T3D2, ELSET=Line39
42, 15, 29
43, 29, 13
*ELEMENT, type=T3D2, ELSET=Line40
44, 13, 30
45, 30, 12
*ELEMENT, type=T3D2, ELSET=Line41
46, 12, 31
47, 31, 10
*ELEMENT, type=T3D2, ELSET=Line42
48, 10, 32
49, 32, 11
*ELEMENT, type=T3D2, ELSET=Line43
50, 11, 33
51, 33, 13
*ELEMENT, type=T3D2, ELSET=Line44
52, 13, 34
53, 34, 14
*ELEMENT, type=T3D2, ELSET=Line45
54, 14, 35
55, 35, 10
*ELEMENT, type=T3D2, ELSET=Line46
56, 15, 36
57, 36, 11
*ELEMENT, type=T3D2, ELSET=Line47
58, 11, 37
59, 37, 12
*ELEMENT, type=T3D2, ELSET=Line48
60, 12, 38
61, 38, 14
*ELEMENT, type=T3D2, ELSET=Line49
62, 14, 39
63, 39, 15
*ELEMENT, type=CPS3, ELSET=Surface27
1022, 26, 43, 1
1024, 43, 27, 1
1026, 16, 41, 2
1030, 41, 26, 2
1032, 42, 16, 3
1036, 20, 42, 3
1062, 44, 20, 8
1066, 27, 44, 8
1092, 41, 16, 42
1107, 40, 42, 20
1108, 44, 40, 20
1130, 41, 40, 26
1131, 40, 43, 26
1134, 43, 40, 27
1135, 40, 44, 27
1146, 41, 42, 40
*ELEMENT, type=CPS3, ELSET=Surface29
1027, 47, 16, 2
1028, 19, 47, 2
1033, 16, 46, 3
1034, 46, 17, 3
1044, 18, 49, 5
1046, 49, 19, 5
1050, 17, 48, 6
1052, 48, 18, 6
1093, 45, 46, 16
1094, 47, 45, 16
1095, 46, 45, 17
1096, 45, 48, 17
1099, 48, 45, 18
1100, 45, 49, 18
1103, 45, 47, 19
1104, 49, 45, 19
*ELEMENT, type=CPS3, ELSET=Surface31
1035, 17, 52, 3
1037, 52, 20, 3
1051, 54, 17, 6
1054, 22, 54, 6
1056, 21, 53, 7
1058, 53, 22, 7
1063, 20, 51, 8
1064, 51, 21, 8
1097, 50, 52, 17
1098, 54, 50, 17
1109, 50, 51, 20
1110, 52, 50, 20
1111, 21, 51, 50
1112, 21, 50, 53
1115, 53, 50, 22
1116, 50, 54, 22
*ELEMENT, type=CPS3, ELSET=Surface33
1020, 1, 57, 25
1025, 1, 27, 57
1040, 4, 58, 24
1042, 4, 25, 58
1057, 7, 59, 21
1060, 7, 24, 59
1065, 8, 21, 56
1067, 8, 56, 27
1113, 21, 55, 56
1114, 21, 59, 55
1123, 24, 58, 55
1124, 24, 55, 59
1126, 25, 57, 55
1127, 25, 55, 58
1136, 27, 56, 55
1137, 27, 55, 57
*ELEMENT, type=CPS3, ELSET=Surface35
1038, 61, 23, 4
1041, 24, 61, 4
1045, 62, 18, 5
1048, 23, 62, 5
1053, 18, 63, 6
1055, 63, 22, 6
1059, 22, 64, 7
1061, 64, 24, 7
1101, 18, 62, 60
1102, 18, 60, 63
1117, 22, 63, 60
1118, 22, 60, 64
1119, 23, 61, 60
1120, 23, 60, 62
1125, 61, 24, 64
1147, 61, 64, 60
*ELEMENT, type=CPS3, ELSET=Surface37
1021, 25, 66, 1
1023, 66, 26, 1
1029, 68, 19, 2
1031, 26, 68, 2
1039, 23, 69, 4
1043, 69, 25, 4
1047, 19, 67, 5
1049, 67, 23, 5
1105, 65, 67, 19
1106, 68, 65, 19
1121, 67, 65, 23
1122, 65, 69, 23
1128, 65, 66, 25
1129, 69, 65, 25
1132, 66, 65, 26
1133, 65, 68, 26
*ELEMENT, type=CPS3, ELSET=Surface51
1070, 10, 32, 31
1073, 37, 32, 11
1078, 31, 37, 12
1144, 31, 32, 37
*ELEMENT, type=CPS3, ELSET=Surface53
1068, 28, 32, 10
1072, 36, 11, 32
1088, 15, 36, 28
1138, 28, 36, 32
*ELEMENT, type=CPS3, ELSET=Surface55
1069, 35, 28, 10
1087, 14, 39, 35
1089, 28, 39, 15
1139, 28, 35, 39
*ELEMENT, type=CPS3, ELSET=Surface57
1071, 31, 35, 10
1079, 38, 31, 12
1086, 14, 35, 38
1145, 31, 38, 35
*ELEMENT, type=CPS3, ELSET=Surface59
1075, 37, 11, 33
1076, 12, 37, 30
1082, 30, 33, 13
1142, 37, 33, 30
*ELEMENT, type=CPS3, ELSET=Surface61
1077, 38, 12, 30
1083, 34, 30, 13
1084, 14, 38, 34
1143, 34, 38, 30
*ELEMENT, type=CPS3, ELSET=Surface63
1081, 13, 29, 34
1085, 34, 39, 14
1091, 39, 29, 15
1141, 34, 29, 39
*ELEMENT, type=CPS3, ELSET=Surface65
1074, 33, 11, 36
1080, 13, 33, 29
1090, 29, 36, 15
1140, 33, 36, 29
*ELEMENT, type=C3D4, ELSET=Volume67
1397, 29, 33, 13, 70
1400, 11, 36, 32, 70
1420, 34, 38, 14, 70
1421, 31, 10, 35, 70
1415, 12, 30, 37, 70
1405, 28, 15, 39, 70
1393, 33, 36, 11, 70
1406, 29, 13, 34, 70
1411, 31, 32, 10, 70
1422, 38, 35, 14, 70
1394, 28, 36, 15, 70
1401, 29, 39, 15, 70
1402, 13, 33, 30, 70
1408, 37, 11, 32, 70
1418, 38, 30, 12, 70
1417, 31, 12, 37, 70
1412, 10, 28, 35, 70
1409, 34, 14, 39, 70
1395, 29, 15, 36, 70
1396, 11, 37, 33, 70
1416, 34, 13, 30, 70
1404, 28, 10, 32, 70
1423, 38, 12, 31, 70
1414, 39, 14, 35, 70
1398, 29, 36, 33, 70
1399, 28, 32, 36, 70
1424, 38, 31, 35, 70
1410, 31, 37, 32, 70
1407, 29, 34, 39, 70
1419, 34, 30, 38, 70
1403, 33, 37, 30, 70
1413, 28, 39, 35, 70
*ELEMENT, type=C3D4, ELSET=Volume186
1229, 57, 29, 34, 39
1313, 29, 68, 33, 36
1258, 34, 30, 69, 38
1290, 33, 49, 30, 37
1353, 59, 38, 31, 35
1374, 39, 28, 35, 44
1308, 31, 37, 54, 32
1215, 66, 57, 29, 34
1375, 28, 51, 35, 44
1289, 49, 62, 30, 37
1314, 68, 47, 33, 36
1260, 58, 34, 69, 38
1244, 33, 49, 67, 30
1345, 57, 43, 29, 39
1377, 35, 39, 44, 56
1306, 53, 59, 31, 35
1301, 63, 31, 37, 54
1278, 37, 48, 54, 32
1360, 58, 34, 38, 14
1333, 11, 32, 36, 46
1263, 30, 62, 12, 37
1309, 47, 11, 33, 36
1211, 66, 29, 13, 34
1336, 43, 29, 39, 15
1226, 33, 67, 13, 30
1248, 53, 31, 10, 35
1153, 68, 29, 33, 13
1307, 28, 51, 10, 35
1287, 34, 57, 39, 14
1273, 32, 28, 52, 10
1267, 31, 12, 63, 37
1225, 11, 48, 37, 32
1373, 28, 39, 15, 44
1165, 35, 39, 56, 14
1380, 59, 38, 35, 14
1249, 11, 49, 33, 37
1297, 54, 31, 32, 10
1222, 13, 34, 30, 69
1342, 32, 28, 36, 42
1216, 51, 35, 44, 56
1245, 67, 49, 62, 30
1182, 57, 43, 66, 29
1302, 48, 63, 37, 54
1339, 28, 32, 52, 42
1341, 32, 36, 46, 42
1312, 41, 68, 29, 36
1257, 30, 61, 69, 38
1283, 59, 38, 64, 31
1325, 28, 36, 42, 15
1202, 30, 61, 38, 12
1352, 29, 41, 36, 15
1250, 64, 38, 12, 31
1340, 52, 32, 46, 42
1315, 68, 41, 47, 36
1261, 61, 58, 69, 38
1284, 53, 59, 64, 31
1188, 47, 11, 36, 45
1213, 29, 66, 13, 65
1200, 55, 58, 38, 14
1356, 43, 39, 40, 15
1160, 67, 33, 13, 65
1161, 12, 63, 37, 60
1189, 62, 30, 12, 60
1156, 55, 34, 58, 14
1170, 55, 57, 34, 14
1332, 32, 11, 45, 46
1331, 11, 36, 45, 46
1354, 51, 50, 10, 35
1285, 62, 12, 37, 60
1293, 53, 31, 50, 10
1316, 11, 48, 32, 45
1212, 33, 68, 13, 65
1167, 68, 29, 13, 65
1254, 50, 53, 10, 35
1372, 39, 40, 15, 44
1371, 40, 28, 15, 44
1382, 59, 55, 38, 14
1169, 31, 54, 50, 10
1326, 29, 43, 40, 15
1243, 13, 67, 65, 30
1192, 11, 47, 33, 45
1234, 13, 66, 34, 65
1357, 57, 55, 39, 14
1195, 50, 32, 52, 10
1295, 55, 35, 56, 14
1231, 48, 11, 37, 45
1239, 12, 31, 63, 60
1230, 49, 11, 33, 45
1305, 28, 50, 52, 10
1218, 34, 13, 65, 69
1378, 39, 55, 56, 14
1207, 65, 13, 30, 69
1209, 11, 49, 37, 45
1294, 50, 28, 51, 10
1381, 55, 59, 35, 14
1275, 50, 54, 32, 10
1205, 47, 68, 33, 19
1198, 33, 49, 19, 67
1217, 58, 34, 25, 69
1166, 66, 57, 34, 25
1159, 51, 35, 56, 21
1204, 23, 67, 62, 30
1266, 18, 48, 63, 37
1247, 62, 49, 18, 37
1219, 32, 17, 52, 46
1347, 28, 20, 51, 44
1298, 22, 31, 63, 54
1359, 39, 27, 44, 56
1183, 66, 43, 26, 29
1346, 43, 57, 27, 39
1350, 53, 59, 35, 21
1318, 48, 54, 32, 17
1227, 19, 33, 67, 65
1228, 55, 25, 58, 34
1269, 55, 25, 34, 57
1168, 68, 33, 19, 65
1277, 22, 50, 53, 31
1152, 18, 60, 37, 63
1176, 23, 60, 30, 62
1201, 18, 60, 62, 37
1320, 36, 16, 45, 46
1256, 24, 55, 58, 38
1187, 16, 47, 36, 45
1235, 26, 66, 29, 65
1178, 45, 19, 47, 33
1270, 22, 50, 31, 54
1237, 65, 25, 66, 34
1236, 68, 26, 29, 65
1324, 32, 45, 17, 46
1391, 51, 50, 35, 21
1276, 45, 19, 33, 49
1252, 65, 25, 34, 69
1337, 27, 43, 39, 40
1321, 48, 32, 45, 17
1348, 39, 27, 40, 44
1361, 20, 28, 40, 44
1253, 24, 59, 55, 38
1392, 50, 53, 35, 21
1148, 31, 22, 63, 60
1242, 67, 23, 65, 30
1150, 55, 27, 39, 56
1282, 57, 55, 27, 39
1281, 35, 55, 56, 21
1358, 26, 40, 29, 43
1185, 18, 45, 48, 37
1214, 23, 65, 30, 69
1210, 18, 45, 37, 49
1349, 59, 55, 35, 21
1241, 50, 32, 17, 52
1304, 50, 28, 20, 51
1180, 50, 28, 52, 20
1197, 54, 50, 32, 17
1344, 28, 42, 40, 15
1223, 30, 61, 12, 60
1164, 36, 41, 40, 15
1171, 61, 38, 12, 60
1240, 12, 64, 31, 60
1351, 42, 36, 40, 15
1355, 41, 29, 40, 15
1264, 38, 64, 12, 60
1288, 47, 41, 16, 36
1259, 61, 24, 58, 38
1265, 22, 53, 64, 31
1179, 52, 28, 42, 20
1338, 36, 16, 46, 42
1191, 26, 41, 68, 29
1221, 61, 23, 30, 69
1157, 24, 59, 38, 64
1238, 23, 60, 61, 30
1206, 28, 42, 20, 40
1363, 36, 41, 42, 40
1203, 61, 64, 38, 60
1158, 26, 40, 41, 29
1272, 41, 16, 36, 42
1280, 64, 22, 31, 60
1296, 61, 64, 24, 38
1327, 20, 51, 44, 8
1251, 49, 5, 62, 18
1233, 59, 53, 7, 21
1319, 27, 44, 56, 8
1268, 48, 6, 54, 17
1271, 6, 22, 63, 54
1190, 1, 57, 66, 25
1246, 25, 58, 69, 4
1177, 49, 5, 19, 67
1184, 68, 47, 2, 19
1162, 43, 1, 66, 26
1173, 43, 57, 1, 27
1208, 5, 23, 67, 62
1286, 6, 18, 48, 63
1224, 56, 51, 21, 8
1262, 17, 3, 52, 46
1376, 44, 51, 56, 8
1193, 49, 5, 67, 62
1279, 48, 6, 63, 54
1155, 57, 43, 1, 66
1335, 16, 3, 46, 42
1149, 41, 26, 68, 2
1186, 61, 23, 69, 4
1196, 59, 24, 7, 64
1323, 3, 52, 42, 20
1154, 24, 61, 58, 4
1174, 41, 47, 16, 2
1151, 22, 53, 7, 64
1220, 53, 59, 7, 64
1163, 58, 61, 69, 4
1172, 41, 68, 47, 2
1334, 3, 52, 46, 42
*ELSET,ELSET=outer
1038, 1041, 1045, 1048, 1053, 1055, 1059, 1061, 1101, 1102, 
1117, 1118, 1119, 1120, 1125, 1147, 1021, 1023, 1029, 1031, 
1039, 1043, 1047, 1049, 1105, 1106, 1121, 1122, 1128, 1129, 
1132, 1133, 1027, 1028, 1033, 1034, 1044, 1046, 1050, 1052, 
1093, 1094, 1095, 1096, 1099, 1100, 1103, 1104, 1020, 1025, 
1040, 1042, 1057, 1060, 1065, 1067, 1113, 1114, 1123, 1124, 
1126, 1127, 1136, 1137, 1022, 1024, 1026, 1030, 1032, 1036, 
1062, 1066, 1092, 1107, 1108, 1130, 1131, 1134, 1135, 1146, 
1035, 1037, 1051, 1054, 1056, 1058, 1063, 1064, 1097, 1098, 
1109, 1110, 1111, 1112, 1115, 1116, 
*ELSET,ELSET=c1
1397, 1400, 1420, 1421, 1415, 1405, 1393, 1406, 1411, 1422, 
1394, 1401, 1402, 1408, 1418, 1417, 1412, 1409, 1395, 1396, 
1416, 1404, 1423, 1414, 1398, 1399, 1424, 1410, 1407, 1419, 
1403, 1413, 
*ELSET,ELSET=domain
1229, 1313, 1258, 1290, 1353, 1374, 1308, 1215, 1375, 1289, 
1314, 1260, 1244, 1345, 1377, 1306, 1301, 1278, 1360, 1333, 
1263, 1309, 1211, 1336, 1226, 1248, 1153, 1307, 1287, 1273, 
1267, 1225, 1373, 1165, 1380, 1249, 1297, 1222, 1342, 1216, 
1245, 1182, 1302, 1339, 1341, 1312, 1257, 1283, 1325, 1202, 
1352, 1250, 1340, 1315, 1261, 1284, 1188, 1213, 1200, 1356, 
1160, 1161, 1189, 1156, 1170, 1332, 1331, 1354, 1285, 1293, 
1316, 1212, 1167, 1254, 1372, 1371, 1382, 1169, 1326, 1243, 
1192, 1234, 1357, 1195, 1295, 1231, 1239, 1230, 1305, 1218, 
1378, 1207, 1209, 1294, 1381, 1275, 1205, 1198, 1217, 1166, 
1159, 1204, 1266, 1247, 1219, 1347, 1298, 1359, 1183, 1346, 
1350, 1318, 1227, 1228, 1269, 1168, 1277, 1152, 1176, 1201, 
1320, 1256, 1187, 1235, 1178, 1270, 1237, 1236, 1324, 1391, 
1276, 1252, 1337, 1321, 1348, 1361, 1253, 1392, 1148, 1242, 
1150, 1282, 1281, 1358, 1185, 1214, 1210, 1349, 1241, 1304, 
1180, 1197, 1344, 1223, 1164, 1171, 1240, 1351, 1355, 1264, 
1288, 1259, 1265, 1179, 1338, 1191, 1221, 1157, 1238, 1206, 
1363, 1203, 1158, 1272, 1280, 1296, 1327, 1251, 1233, 1319, 
1268, 1271, 1190, 1246, 1177, 1184, 1162, 1173, 1208, 1286, 
1224, 1262, 1376, 1193, 1279, 1155, 1335, 1149, 1186, 1196, 
1323, 1154, 1174, 1151, 1220, 1163, 1172, 1334, 
*NSET,NSET=outer
4, 6, 2, 1, 3, 5, 7, 8, 21, 68, 
69, 62, 60, 63, 61, 20, 67, 66, 64, 65, 
17, 44, 42, 43, 45, 19, 55, 48, 49, 27, 
59, 22, 57, 41, 58, 56, 25, 18, 52, 51, 
46, 50, 53, 24, 54, 47, 40, 16, 23, 26, 
*NSET,NSET=c1
15, 13, 14, 12, 11, 10, 70, 37, 33, 36, 
32, 38, 39, 31, 30, 28, 35, 34, 29, 
*NSET,NSET=domain
4, 6, 2, 15, 1, 13, 14, 12, 11, 10, 
3, 5, 7, 8, 21, 37, 68, 33, 36, 69, 
62, 60, 32, 63, 61, 38, 20, 39, 67, 66, 
64, 31, 65, 17, 44, 42, 30, 28, 43, 45, 
19, 55, 48, 49, 27, 35, 59, 22, 57, 41, 
58, 34, 56, 29, 25, 18, 52, 51, 46, 50, 
53, 24, 54, 47, 40, 16, 23, 26, 
