$MeshFormat
2.2 0 8
$EndMeshFormat
$PhysicalNames
2
2 1 "outer"
3 2 "domain"
$EndPhysicalNames
$Nodes
14
1 -5 -5 0
2 -5 5 0
3 5 5 0
4 -5 -5 10
5 -5 5 10
6 5 5 10
7 5 -5 10
8 5 -5 0
9 0 0 0
10 0 5 5
11 5 0 5
12 0 -5 5
13 0 0 10
14 -5 0 5
$EndNodes
$Elements
48
1 2 2 1 27 2 9 1
2 2 2 1 27 9 8 1
3 2 2 1 27 3 9 2
4 2 2 1 27 8 9 3
5 2 2 1 29 2 10 3
6 2 2 1 29 2 5 10
7 2 2 1 29 3 10 6
8 2 2 1 29 5 6 10
9 2 2 1 31 6 11 3
10 2 2 1 31 11 8 3
11 2 2 1 31 7 11 6
12 2 2 1 31 8 11 7
13 2 2 1 33 1 12 4
14 2 2 1 33 1 8 12
15 2 2 1 33 4 12 7
16 2 2 1 33 7 12 8
17 2 2 1 35 4 13 5
18 2 2 1 35 4 7 13
19 2 2 1 35 5 13 6
20 2 2 1 35 6 13 7
21 2 2 1 37 1 14 2
22 2 2 1 37 1 4 14
23 2 2 1 37 2 14 5
24 2 2 1 37 4 5 14
25 4 2 2 186 12 14 11 9
26 4 2 2 186 14 10 11 9
27 4 2 2 186 14 13 12 11
28 4 2 2 186 13 14 10 11
29 4 2 2 186 3 6 10 11
30 4 2 2 186 5 4 14 13
31 4 2 2 186 7 13 6 11
32 4 2 2 186 2 5 14 10
33 4 2 2 186 4 1 14 12
34 4 2 2 186 1 2 14 9
35 4 2 2 186 13 5 6 10
36 4 2 2 186 7 4 13 12
37 4 2 2 186 3 11 9 8
38 4 2 2 186 12 1 9 8
39 4 2 2 186 2 3 10 9
40 4 2 2 186 7 12 11 8
41 4 2 2 186 1 14 12 9
42 4 2 2 186 11 12 9 8
43 4 2 2 186 14 5 13 10
44 4 2 2 186 6 13 10 11
45 4 2 2 186 10 3 11 9
46 4 2 2 186 13 7 12 11
47 4 2 2 186 4 14 13 12
48 4 2 2 186 14 2 10 9
$EndElements
